Amas de Casa en la Economía Popular
…
Aquí se puede explorar un poco la base

df %>%
  arrange(CODUSU,NRO_HOGAR)

## # A tibble: 2,609 × 48
## # Groups:   CODUSU, NRO_HOGAR [2,442]
##     YEAR TRIMESTER REGION    AGLOMERADO  CODUSU  NRO_HOGAR ROL_HOGAR SEXO   EDAD
##    <dbl>     <dbl> <chr>     <chr>       <chr>       <dbl> <chr>     <chr> <dbl>
##  1  2022         1 GBA       PARTIDOS G… TQRMNO…         1 CONYUGE   VARON    57
##  2  2022         1 GBA       PARTIDOS G… TQRMNO…         1 HIJE      MUJER    18
##  3  2022         1 NOA       GRAN SALTA  TQRMNO…         1 CONYUGE   MUJER    40
##  4  2022         1 PAMPEANA  RIO CUARTO  TQRMNO…         1 CONYUGE   MUJER    34
##  5  2022         1 PAMPEANA  GRAN ROSAR… TQRMNO…         1 HIJE      MUJER    24
##  6  2022         1 PAMPEANA  GRAN ROSAR… TQRMNO…         1 HIJE      MUJER    22
##  7  2022         1 PAMPEANA  GRAN ROSAR… TQRMNO…         1 HIJE      MUJER    19
##  8  2022         1 PATAGONIA RAWSON - T… TQRMNO…         1 CONYUGE   MUJER    41
##  9  2022         1 PATAGONIA NEUQUEN - … TQRMNO…         1 CONYUGE   MUJER    37
## 10  2022         1 PAMPEANA  GRAN LA PL… TQRMNO…         1 HIJE      VARON    31
## # … with 2,599 more rows, and 39 more variables: ESTADO <chr>,
## #   CATEGORIA_OCUPACION <chr>, CATEGORIA_INACTIVO <chr>, PONDERA <dbl>,
## #   TIPO_OCUPACION <dbl>, REGISTRACION <dbl>, APORTE_PROPIO <dbl>,
## #   SERVICIO_DOMESTICO <dbl>, TOTAL_CASAS <dbl>, CODIGO_OCUPACION <chr>,
## #   TOTAL_INGRESO_INDIVIDUAL <dbl>, EX_SERVICIO_DOMESTICO <dbl>,
## #   EX_TIPO_OCUPACION <dbl>, INGRESOS_OCUP_PPAL <dbl>,
## #   INGRESO_JUBILACION <dbl>, INGRESO_AYUDA_SOCIAL <dbl>, …
…
